^C:\USERS\VBONASSI\DESKTOP\ESGI\C++\CLIENTLAB\PROJETCPPCLIENT\CLIENTTEST\STDAFX.CPP
C:\USERS\VBONASSI\DESKTOP\ESGI\C++\CLIENTLAB\PROJETCPPCLIENT\CLIENTTEST\X64\RELEASE\CLIENTCPP.PCH
C:\USERS\VBONASSI\DESKTOP\ESGI\C++\CLIENTLAB\PROJETCPPCLIENT\CLIENTTEST\X64\RELEASE\VC140.PDB
C:\USERS\VBONASSI\DESKTOP\ESGI\C++\CLIENTLAB\PROJETCPPCLIENT\CLIENTTEST\X64\RELEASE\STDAFX.OBJ
^C:\USERS\VBONASSI\DESKTOP\ESGI\C++\CLIENTLAB\PROJETCPPCLIENT\CLIENTTEST\CLIENTCPP.CPP
C:\USERS\VBONASSI\DESKTOP\ESGI\C++\CLIENTLAB\PROJETCPPCLIENT\CLIENTTEST\X64\RELEASE\VC140.PDB
C:\USERS\VBONASSI\DESKTOP\ESGI\C++\CLIENTLAB\PROJETCPPCLIENT\CLIENTTEST\X64\RELEASE\CLIENTCPP.OBJ
