^D:\PROFILES\RGOUDARD\DESKTOP\ECOLE\CPLUSPLUS\PROJET\PROJETCPPCLIENT\CLIENTTEST\STDAFX.CPP
D:\PROFILES\RGOUDARD\DESKTOP\ECOLE\CPLUSPLUS\PROJET\PROJETCPPCLIENT\CLIENTTEST\X64\DEBUG\CLIENTCPP.PCH
D:\PROFILES\RGOUDARD\DESKTOP\ECOLE\CPLUSPLUS\PROJET\PROJETCPPCLIENT\CLIENTTEST\X64\DEBUG\VC141.PDB
D:\PROFILES\RGOUDARD\DESKTOP\ECOLE\CPLUSPLUS\PROJET\PROJETCPPCLIENT\CLIENTTEST\X64\DEBUG\VC141.IDB
D:\PROFILES\RGOUDARD\DESKTOP\ECOLE\CPLUSPLUS\PROJET\PROJETCPPCLIENT\CLIENTTEST\X64\DEBUG\STDAFX.OBJ
^D:\PROFILES\RGOUDARD\DESKTOP\ECOLE\CPLUSPLUS\PROJET\PROJETCPPCLIENT\CLIENTTEST\CLIENTCPP.CPP
D:\PROFILES\RGOUDARD\DESKTOP\ECOLE\CPLUSPLUS\PROJET\PROJETCPPCLIENT\CLIENTTEST\X64\DEBUG\VC141.PDB
D:\PROFILES\RGOUDARD\DESKTOP\ECOLE\CPLUSPLUS\PROJET\PROJETCPPCLIENT\CLIENTTEST\X64\DEBUG\VC141.IDB
D:\PROFILES\RGOUDARD\DESKTOP\ECOLE\CPLUSPLUS\PROJET\PROJETCPPCLIENT\CLIENTTEST\X64\DEBUG\CLIENTCPP.OBJ
^D:\PROFILES\RGOUDARD\DESKTOP\ECOLE\CPUSPLUS2\PROJETCPPCLIENT\CLIENTTEST\STDAFX.CPP
D:\PROFILES\RGOUDARD\DESKTOP\ECOLE\CPUSPLUS2\PROJETCPPCLIENT\CLIENTTEST\X64\DEBUG\CLIENTCPP.PCH
D:\PROFILES\RGOUDARD\DESKTOP\ECOLE\CPUSPLUS2\PROJETCPPCLIENT\CLIENTTEST\X64\DEBUG\VC141.PDB
D:\PROFILES\RGOUDARD\DESKTOP\ECOLE\CPUSPLUS2\PROJETCPPCLIENT\CLIENTTEST\X64\DEBUG\VC141.IDB
D:\PROFILES\RGOUDARD\DESKTOP\ECOLE\CPUSPLUS2\PROJETCPPCLIENT\CLIENTTEST\X64\DEBUG\STDAFX.OBJ
^D:\PROFILES\RGOUDARD\DESKTOP\ECOLE\CPUSPLUS2\PROJETCPPCLIENT\CLIENTTEST\CLIENTCPP.CPP
D:\PROFILES\RGOUDARD\DESKTOP\ECOLE\CPUSPLUS2\PROJETCPPCLIENT\CLIENTTEST\X64\DEBUG\VC141.PDB
D:\PROFILES\RGOUDARD\DESKTOP\ECOLE\CPUSPLUS2\PROJETCPPCLIENT\CLIENTTEST\X64\DEBUG\VC141.IDB
D:\PROFILES\RGOUDARD\DESKTOP\ECOLE\CPUSPLUS2\PROJETCPPCLIENT\CLIENTTEST\X64\DEBUG\CLIENTCPP.OBJ
