^C:\USERS\VBONASSI\DESKTOP\ESGI\C++\CLIENTPROJ\CLIENTTEST\RELEASE\CLIENTTEST.OBJ|C:\USERS\VBONASSI\DESKTOP\ESGI\C++\CLIENTPROJ\CLIENTTEST\RELEASE\STDAFX.OBJ
C:\USERS\VBONASSI\DESKTOP\ESGI\C++\CLIENTPROJ\RELEASE\CLIENTTEST.EXE
C:\USERS\VBONASSI\DESKTOP\ESGI\C++\CLIENTPROJ\RELEASE\CLIENTTEST.PDB
